…
Tidy data comes in a long format (remember: each observation is a row). The opposite is a wide format where each row is a case, which might be what you know from SPSS. Our data doesnt have a very nice long format. In the next step we will reshape our data into a better long format. - First, take a look at our data set: Which variables should be gathered to make the data less wide and give us one observation/row? - Take a piece of paper and draw how the final long data set should look like. Which variables will we have and which values do they take? Discuss this with your neighbour or as a group. (10min)

We want to gather the pokemon type. This is like a repeated measurment variable (each pokemon can have two types). We want one new variable, that tells us the level of measurment (primary or secondary type) and then one variable that gives us the result, here the type (fire, water, bug, dragon etc.).

To do that we use the gather function. We tell it that we want the new variables type_priority which will contain the current variables names (type1 and type2) and the new variable type which will contain the value that our current variables take (fire, water, bug, dragon etc.). We need to specify which variables should be gathered. Here we say we want everything between and including type1 and type2, which is indicated by the :

Compare the datasets pokemon and pokemon_long by looking at the tibbles we printed.

pokemon_long <- gather(pokemon, "type_priority", "type", type1:type2)
print(pokemon)

## # A tibble: 800 x 13
##       no name     type1 type2 total    hp attack defense spatk spdef speed
##    <int> <chr>    <chr> <chr> <int> <int>  <int>   <int> <int> <int> <int>
##  1     1 Bulbasa Grass Pois   318    45     49      49    65    65    45
##  2     2 Ivysaur  Grass Pois   405    60     62      63    80    80    60
##  3     3 Venusaur Grass Pois   525    80     82      83   100   100    80
##  4     3 Venusau Grass Pois   625    80    100     123   122   120    80
##  5     4 Charman Fire  <NA>    309    39     52      43    60    50    65
##  6     5 Charmel Fire  <NA>    405    58     64      58    80    65    80
##  7     6 Chariza Fire  Flyi   534    78     84      78   109    85   100
##  8     6 Chariza Fire  Drag   634    78    130     111   130    85   100
##  9     6 Chariza Fire  Flyi   634    78    104      78   159   115   100
## 10     7 Squirtle Water <NA>    314    44     48      65    50    64    43
## # ... with 790 more rows, and 2 more variables: generation <fct>,
## #   legendary <fct>

print(pokemon_long)

## # A tibble: 1,600 x 13
##       no name      total    hp attack defense spatk spdef speed generation
##    <int> <chr>     <int> <int>  <int>   <int> <int> <int> <int> <fct>     
##  1     1 Bulbasaur   318    45     49      49    65    65    45 1         
##  2     2 Ivysaur     405    60     62      63    80    80    60 1         
##  3     3 Venusaur    525    80     82      83   100   100    80 1         
##  4     3 Venusaur   625    80    100     123   122   120    80 1         
##  5     4 Charmand   309    39     52      43    60    50    65 1         
##  6     5 Charmele   405    58     64      58    80    65    80 1         
##  7     6 Charizard   534    78     84      78   109    85   100 1         
##  8     6 Charizar   634    78    130     111   130    85   100 1         
##  9     6 Charizar   634    78    104      78   159   115   100 1         
## 10     7 Squirtle    314    44     48      65    50    64    43 1         
## # ... with 1,590 more rows, and 3 more variables: legendary <fct>,
## #   type_priority <chr>, type <chr>
…
The pipe operator allows you to build a pipeline of different operations and pipe your data through it. To understand this you can imagine baking bread. If you do it by hand you will go through different steps that all lead you to an interim result, which you use for the next step: you mix the ingredients and get dough -> you put the dough in a form and let it grow -> you shape the grown dough -> you put the shaped dough and the oven and bake it -> you take the bread out.

Wouldnt it be great to just put the ingredients in a machine and you take the ready baked bread out? You wont be bothered with the interim results. This is basically what the pipe operator does to your code. You put an object like a dataset in and all the functions will be applied in order, but no intermin results are stored and the output is your final result.

Below you can see the operation we did before written with the pipe. Take a look at how the code from above looks like, when we use the pipe.

You understand the pipe operator when you can explain what the two print functions do and why we get again both datasets (pokemon and pokemon_long) although the print commands are empty. (8min)

pokemon_long <- #this will be where we store the final result
  pokemon %>% #the pokemon dataset is the ingedients we use
  print() %>% #we apply this procedure
  gather("type_priority", "type", type1:type2) %>% #we take the result from the previous procedure and apply this
  print() #again we take the result from the previous procedure and print it

## # A tibble: 800 x 13
##       no name     type1 type2 total    hp attack defense spatk spdef speed
##    <int> <chr>    <chr> <chr> <int> <int>  <int>   <int> <int> <int> <int>
##  1     1 Bulbasa Grass Pois   318    45     49      49    65    65    45
##  2     2 Ivysaur  Grass Pois   405    60     62      63    80    80    60
##  3     3 Venusaur Grass Pois   525    80     82      83   100   100    80
##  4     3 Venusau Grass Pois   625    80    100     123   122   120    80
##  5     4 Charman Fire  <NA>    309    39     52      43    60    50    65
##  6     5 Charmel Fire  <NA>    405    58     64      58    80    65    80
##  7     6 Chariza Fire  Flyi   534    78     84      78   109    85   100
##  8     6 Chariza Fire  Drag   634    78    130     111   130    85   100
##  9     6 Chariza Fire  Flyi   634    78    104      78   159   115   100
## 10     7 Squirtle Water <NA>    314    44     48      65    50    64    43
## # ... with 790 more rows, and 2 more variables: generation <fct>,
## #   legendary <fct>
## # A tibble: 1,600 x 13
##       no name      total    hp attack defense spatk spdef speed generation
##    <int> <chr>     <int> <int>  <int>   <int> <int> <int> <int> <fct>     
##  1     1 Bulbasaur   318    45     49      49    65    65    45 1         
##  2     2 Ivysaur     405    60     62      63    80    80    60 1         
##  3     3 Venusaur    525    80     82      83   100   100    80 1         
##  4     3 Venusaur   625    80    100     123   122   120    80 1         
##  5     4 Charmand   309    39     52      43    60    50    65 1         
##  6     5 Charmele   405    58     64      58    80    65    80 1         
##  7     6 Charizard   534    78     84      78   109    85   100 1         
##  8     6 Charizar   634    78    130     111   130    85   100 1         
##  9     6 Charizar   634    78    104      78   159   115   100 1         
## 10     7 Squirtle    314    44     48      65    50    64    43 1         
## # ... with 1,590 more rows, and 3 more variables: legendary <fct>,
## #   type_priority <chr>, type <chr>

Remember that chaining means that you invoke multiple method calls. As each method returns an object, you can actually allow the calls to be chained together in a single statement, without needing variables to store the intermediate results.

No its your turn: - Try to gather all the stats for the pokemon into two variables: the type of stats (attack, defense) and the value. Try to use the pipe operator! - If this is easy for you try to combine the previous code chunk and this one and make one single pipeline (10min)

# pokemon_long <- gather(pokemon_long, "stats_type", "stats_value", total:speed)
# you can do it like this without using the pipe

pokemon_long <-
  pokemon_long %>% #note that we now want to use pokemon_long as ingredients, because we want to keep the changes we made before
  gather("stats_type", "stats_value", total:speed) %>%
  print()

## # A tibble: 11,200 x 8
##       no name          generation legendary type_priority type  stats_type
##    <int> <chr>         <fct>      <fct>     <chr>         <chr> <chr>     
##  1     1 Bulbasaur     1          False     type1         Grass total     
##  2     2 Ivysaur       1          False     type1         Grass total     
##  3     3 Venusaur      1          False     type1         Grass total     
##  4     3 VenusaurMega 1          False     type1         Grass total     
##  5     4 Charmander    1          False     type1         Fire  total     
##  6     5 Charmeleon    1          False     type1         Fire  total     
##  7     6 Charizard     1          False     type1         Fire  total     
##  8     6 CharizardMeg 1          False     type1         Fire  total     
##  9     6 CharizardMeg 1          False     type1         Fire  total     
## 10     7 Squirtle      1          False     type1         Water total     
## # ... with 11,190 more rows, and 1 more variable: stats_value <int>
…
